Division,WeightClassKg,Place,Name,Team,BodyweightKg,Best3SquatKg,Best3BenchKg,Best3DeadliftKg,TotalKg,Equipment,Event,Sex
Boys,51.71,1,Robert Chapa,Gregory-Portland,51.71,181.44,92.99,192.78,467.2,Single-ply,SBD,M
Boys,55.79,2,Thomas Soto,Corpus Christi Calallen,51.8,185.97,86.18,185.97,458.13,Single-ply,SBD,M
Boys,51.71,3,Randy Trevino,Gregory-Portland,51.35,147.42,81.65,151.95,381.02,Single-ply,SBD,M
Boys,51.71,4,Mauro Garcia,Port Lavaca Calhoun,50.8,136.08,72.57,154.22,362.87,Single-ply,SBD,M
Boys,51.71,5,Joe Castillo #4,Gregory-Portland,51.44,138.35,74.84,138.35,351.53,Single-ply,SBD,M
Boys,51.71,6,Pete Olivarez,Orange Grove,48.9,136.08,58.97,122.47,317.51,Single-ply,SBD,M
Boys,51.71,7,Kayden Kurtz,Vanderbilt Industrial,45.81,72.57,49.9,90.72,213.19,Single-ply,SBD,M
Boys,51.71,8,Max Laguna,Kingsville King,46.18,63.5,49.9,74.84,188.24,Single-ply,SBD,M
Boys,51.71,DQ,Daniel Porras,Orange Grove,51.71,145.15,,,,Single-ply,SBD,M
Boys,51.71,DQ,Robert Ramos,Corpus Christi Tuloso-Midway,51.17,,,,,Single-ply,SBD,M
Boys,55.79,1,Daniel Chapa,Gregory-Portland,55.61,181.44,104.33,201.85,487.61,Single-ply,SBD,M
Boys,59.87,2,Rj Hinojosa,Banquete,55.97,149.69,88.45,147.42,385.55,Single-ply,SBD,M
Boys,59.87,3,Matthew Valdez,San Diego,56.02,154.22,74.84,149.69,378.75,Single-ply,SBD,M
Boys,55.79,4,Jacob de la Paz,Corpus Christi Calallen,55.07,140.61,72.57,163.29,376.48,Single-ply,SBD,M
Boys,55.79,5,Marcus Hernandez #1,Victoria West,54.7,138.35,74.84,154.22,367.41,Single-ply,SBD,M
Boys,55.79,6,Garrett Wildman,Banquete,55.43,138.35,68.04,145.15,351.53,Single-ply,SBD,M
Boys,55.79,7,Jared Medina,Banquete,55.07,127.01,70.31,142.88,340.19,Single-ply,SBD,M
Boys,55.79,8,Trenton Thedford,Vanderbilt Industrial,54.79,136.08,79.38,113.4,328.85,Single-ply,SBD,M
Boys,55.79,9,Bradley McGill,Vanderbilt Industrial,53.98,111.13,70.31,115.67,297.1,Single-ply,SBD,M
Boys,55.79,DQ,Anthony Sanchez,Falfurrias,55.43,111.13,74.84,,,Single-ply,SBD,M
Boys,59.87,1,Ryan Yanez,Gregory-Portland,59.15,190.51,127.01,190.51,508.02,Single-ply,SBD,M
Boys,59.87,2,Jeff Kearns,Gregory-Portland,59.33,192.78,111.13,179.17,483.08,Single-ply,SBD,M
Boys,59.87,3,Ben Heard,Corpus Christi Calallen,58.88,154.22,86.18,172.37,412.77,Single-ply,SBD,M
Boys,59.87,4,David Cavazos,Kingsville King,57.7,181.44,92.99,136.08,410.5,Single-ply,SBD,M
Boys,59.87,5,Marcus Crespin,Victoria West,57.24,156.49,86.18,163.29,405.97,Single-ply,SBD,M
Boys,59.87,6,Samuel Navarro,Beeville Jones,59.6,158.76,81.65,165.56,405.97,Single-ply,SBD,M
Boys,59.87,7,Tristan Ruiz,Corpus Christi Calallen,59.51,149.69,81.65,165.56,396.89,Single-ply,SBD,M
Boys,59.87,8,Andre Wilson,Kingsville King,59.15,145.15,79.38,167.83,392.36,Single-ply,SBD,M
Boys,59.87,9,Daniel Santillan,Vanderbilt Industrial,56.43,131.54,61.23,140.61,333.39,Single-ply,SBD,M
Boys,59.87,DQ,Dallas de la Cruz,Mathis,58.51,204.12,,,,Single-ply,SBD,M
Boys,59.87,DQ,Ted Crain,Falfurrias,59.78,,,,,Single-ply,SBD,M
Boys,59.87,DQ,John Starks,Banquete,58.15,167.83,115.67,,,Single-ply,SBD,M
Boys,59.87,DQ,Edward Davidson,Alice,56.43,158.76,83.91,,,Single-ply,SBD,M
Boys,67.13,1,JJ Gonzalez,Gregory-Portland,66.59,254.01,151.95,235.87,641.83,Single-ply,SBD,M
Boys,67.13,2,Rico Rodriguez,San Diego,66.95,226.8,129.27,226.8,582.87,Single-ply,SBD,M
Boys,67.13,3,Martin Armenta,Victoria West,66.59,206.38,120.2,217.72,544.31,Single-ply,SBD,M
Boys,67.13,4,Jeremiah Keever,Bishop,66.04,190.51,90.72,199.58,480.81,Single-ply,SBD,M
Boys,67.13,5,Josue Gonzalez #2,Corpus Christi Calallen,66.86,179.17,113.4,161.03,453.59,Single-ply,SBD,M
Boys,74.84,6,Albert Salinas,Bishop,67.36,181.44,95.25,176.9,453.59,Single-ply,SBD,M
Boys,67.13,7,Caleb Marek,Victoria West,64.41,158.76,86.18,163.29,408.23,Single-ply,SBD,M
Boys,67.13,8,Xavian Stewart,Banquete,67.13,120.2,97.52,181.44,399.16,Single-ply,SBD,M
Boys,67.13,9,Josh Cruz,Bishop,62.32,131.54,74.84,136.08,342.46,Single-ply,SBD,M
Boys,67.13,DQ,Justin Sobcrak,Corpus Christi Tuloso-Midway,66.22,145.15,88.45,,,Single-ply,SBD,M
Boys,67.13,DQ,Eligio Montalvo,Falfurrias,66.95,,,,,Single-ply,SBD,M
Boys,67.13,DQ,Daniel Rivera,Orange Grove,64.5,174.63,99.79,,,Single-ply,SBD,M
Boys,67.13,DQ,Elijah Velasquez,Port Lavaca Calhoun,61.78,188.24,111.13,,,Single-ply,SBD,M
Boys,74.84,1,Travis Charles,Bishop,69.58,249.48,136.08,233.6,619.15,Single-ply,SBD,M
Boys,74.84,2,Billy Luster,Corpus Christi West Oso,72.94,240.4,113.4,224.53,578.33,Single-ply,SBD,M
Boys,74.84,3,Tristan Pelitire,Beeville Jones,71.58,213.19,145.15,210.92,569.26,Single-ply,SBD,M
Boys,74.84,4,Jared Reilly,Corpus Christi Calallen,70.03,213.19,117.93,235.87,566.99,Single-ply,SBD,M
Boys,74.84,5,Carlos Charles,Bishop,74.57,217.72,122.47,215.46,555.65,Single-ply,SBD,M
Boys,74.84,6,Dillion Torres,Beeville Jones,71.49,199.58,124.74,204.12,528.44,Single-ply,SBD,M
Boys,74.84,7,Jared Garcia,Corpus Christi Calallen,73.48,192.78,115.67,213.19,521.63,Single-ply,SBD,M
Boys,82.1,8,Moses Rios,Mathis,74.93,201.85,115.67,199.58,517.1,Single-ply,SBD,M
Boys,74.84,9,Nathan Sanchez #3,Corpus Christi Calallen,72.67,197.31,102.06,213.19,512.56,Single-ply,SBD,M
Boys,74.84,10,Jose Gonzalez #15,Alice,74.66,199.58,90.72,204.12,494.42,Single-ply,SBD,M
Boys,74.84,11,Matt Martinez,George West,74.03,213.19,106.59,165.56,485.34,Single-ply,SBD,M
Boys,74.84,12,Zach Candela,Odem,73.94,183.7,108.86,188.24,480.81,Single-ply,SBD,M
Boys,74.84,13,Michael Garcia #13,Alice,68.58,170.1,90.72,204.12,464.93,Single-ply,SBD,M
Boys,74.84,14,Rudy Luna,Robstown,70.49,165.56,106.59,183.7,455.86,Single-ply,SBD,M
Boys,74.84,15,Martin Fonseca,Mathis,72.57,154.22,68.04,172.37,394.63,Single-ply,SBD,M
Boys,74.84,16,Mike Munoz,Bishop,70.94,149.69,77.11,165.56,392.36,Single-ply,SBD,M
Boys,74.84,17,Jonathon Garza,Kingsville King,69.85,122.47,72.57,170.1,365.14,Single-ply,SBD,M
Boys,74.84,18,Donald Rye,Kingsville King,73.66,108.86,90.72,147.42,347,Single-ply,SBD,M
Boys,74.84,DQ,Tyler Pavlas,Orange Grove,71.21,129.27,,,,Single-ply,SBD,M
Boys,74.84,DQ,Bobby Benavides,Robstown,69.4,149.69,,,,Single-ply,SBD,M
Boys,82.1,DQ,Dylan Vasquez,Falfurrias,75.02,,,,,Single-ply,SBD,M
Boys,74.84,DQ,Duncan Matengo,Corpus Christi Tuloso-Midway,68.13,142.88,,,,Single-ply,SBD,M
Boys,74.84,DQ,Ryan Rosas,Corpus Christi Tuloso-Midway,68.49,163.29,,,,Single-ply,SBD,M
Boys,82.1,1,Ryan Torres,Gregory-Portland,80.2,265.35,151.95,263.08,680.39,Single-ply,SBD,M
Boys,82.1,2,Roy Saenz,Bishop,81.92,206.38,124.74,226.8,557.92,Single-ply,SBD,M
Boys,82.1,3,Jacob Flores,Beeville Jones,81.19,217.72,113.4,208.65,539.77,Single-ply,SBD,M
Boys,89.81,4,Ben Burkett,Bishop,82.28,195.04,124.74,185.97,505.76,Single-ply,SBD,M
Boys,82.1,5,Diego Leal,Banquete,81.56,204.12,106.59,188.24,498.95,Single-ply,SBD,M
Boys,82.1,6,Aaron Villareal,Kingsville King,80.74,170.1,106.59,192.78,469.47,Single-ply,SBD,M
Boys,82.1,7,Dustin Hompol,Vanderbilt Industrial,80.29,165.56,104.33,158.76,428.64,Single-ply,SBD,M
Boys,82.1,8,Jack Perry,Vanderbilt Industrial,80.2,163.29,92.99,165.56,421.84,Single-ply,SBD,M
Boys,82.1,9,Aaron Charles,Beeville Jones,79.38,158.76,88.45,140.61,387.82,Single-ply,SBD,M
Boys,82.1,10,JoeAllen Herrera,Beeville Jones,79.74,102.06,95.25,151.95,349.27,Single-ply,SBD,M
Boys,82.1,11,Adam Martinez,Corpus Christi Tuloso-Midway,75.39,124.74,74.84,142.88,342.46,Single-ply,SBD,M
Boys,82.1,DQ,Gilbert Jasso,Robstown,82.01,167.83,,,,Single-ply,SBD,M
Boys,82.1,DQ,Ricky de la Paz,San Diego,77.93,,,,,Single-ply,SBD,M
Boys,89.81,1,Javiel Rojas,Kingsville King,89.81,285.76,151.95,288.03,725.75,Single-ply,SBD,M
Boys,89.81,2,Jose Jr Vela,Falfurrias,88,263.08,140.61,238.14,641.83,Single-ply,SBD,M
Boys,99.79,3,Devin Bisby,Gregory-Portland,89.99,238.14,151.95,247.21,637.3,Single-ply,SBD,M
Boys,89.81,4,Matt Hartman #3,Victoria West,87.91,238.14,133.81,263.08,635.03,Single-ply,SBD,M
Boys,89.81,5,Justin Medrano,Mathis,89.63,244.94,133.81,240.4,619.15,Single-ply,SBD,M
Boys,89.81,6,Leo Adams,Alice,88.81,229.06,172.37,213.19,614.62,Single-ply,SBD,M
Boys,89.81,7,Philip Barrientos,Bishop,88.54,226.8,142.88,231.33,601.01,Single-ply,SBD,M
Boys,89.81,8,Marco Balboa,Alice,88.9,242.67,113.4,215.46,571.53,Single-ply,SBD,M
Boys,89.81,9,Tony Ledesma,Riviera Kaufer,86.45,208.65,124.74,226.8,560.19,Single-ply,SBD,M
Boys,89.81,10,Brandon Cody,Victoria West,85.09,210.92,131.54,215.46,557.92,Single-ply,SBD,M
Boys,89.81,11,Fernando Flores,Corpus Christi Tuloso-Midway,87.54,192.78,122.47,235.87,551.11,Single-ply,SBD,M
Boys,89.81,12,Chase Wiatrek,Poth,89.18,195.04,142.88,213.19,551.11,Single-ply,SBD,M
Boys,89.81,13,Kevin Pena,Robstown,87.45,217.72,131.54,199.58,548.85,Single-ply,SBD,M
Boys,89.81,14,Kenny Sanchez,Victoria West,88.27,217.72,122.47,206.38,546.58,Single-ply,SBD,M
Boys,89.81,15,Quinton Baria,Corpus Christi Tuloso-Midway,83.28,213.19,136.08,190.51,539.77,Single-ply,SBD,M
Boys,89.81,16,Jordan Branum,Vanderbilt Industrial,84.28,195.04,136.08,185.97,517.1,Single-ply,SBD,M
Boys,89.81,17,Jeremy Esquivel,Mathis,88.45,204.12,99.79,208.65,512.56,Single-ply,SBD,M
Boys,89.81,18,Jesus Carrasco,Alice,86.18,172.37,102.06,215.46,489.88,Single-ply,SBD,M
Boys,89.81,19,Merle Garza,Goliad,84.01,192.78,108.86,181.44,483.08,Single-ply,SBD,M
Boys,89.81,20,Mateo Lopez #2,Alice,88.27,161.03,127.01,192.78,480.81,Single-ply,SBD,M
Boys,99.79,21,Joe Castillo #1,Corpus Christi West Oso,90.04,190.51,108.86,172.37,471.74,Single-ply,SBD,M
Boys,89.81,22,Manny Jimenez,Kingsville King,85.09,181.44,102.06,183.7,467.2,Single-ply,SBD,M
Boys,89.81,23,Isaul Arismendez,Alice,84.37,158.76,111.13,183.7,453.59,Single-ply,SBD,M
Boys,89.81,24,Rolando Gutierrez,Corpus Christi West Oso,82.64,161.03,99.79,167.83,428.64,Single-ply,SBD,M
Boys,99.79,1,Luis Lopez #3,San Diego,91.99,297.1,156.49,272.16,725.75,Single-ply,SBD,M
Boys,109.77,2,Nick Trevino #2,Kingsville King,99.84,260.82,147.42,272.16,680.39,Single-ply,SBD,M
Boys,99.79,3,Alex Tanguma,Corpus Christi Calallen,96.07,267.62,172.37,238.14,678.12,Single-ply,SBD,M
Boys,99.79,4,Reno Perez,San Diego,94.71,288.03,136.08,251.74,675.85,Single-ply,SBD,M
Boys,99.79,5,Brendon Breland,Banquete,95.53,233.6,129.27,235.87,598.74,Single-ply,SBD,M
Boys,99.79,6,Luis Guerra,Bishop,97.16,254.01,120.2,219.99,594.21,Single-ply,SBD,M
Boys,99.79,7,Aric Gamez,Beeville Jones,93.53,233.6,142.88,201.85,578.33,Single-ply,SBD,M
Boys,99.79,8,Jesse Gomez,Kingsville King,97.34,229.06,136.08,201.85,566.99,Single-ply,SBD,M
Boys,99.79,9,John Rivera,Alice,93.17,226.8,138.35,195.04,560.19,Single-ply,SBD,M
Boys,99.79,10,Justin Salinas,Kingsville King,94.8,215.46,131.54,192.78,539.77,Single-ply,SBD,M
Boys,99.79,11,Mason Davis,Vanderbilt Industrial,97.52,197.31,127.01,208.65,532.97,Single-ply,SBD,M
Boys,99.79,12,Conner Chumchal,Victoria West,97.79,226.8,104.33,181.44,512.56,Single-ply,SBD,M
Boys,99.79,13,Edward Silva,Robstown,98.16,165.56,99.79,181.44,446.79,Single-ply,SBD,M
Boys,99.79,14,Travis Alexander,Vanderbilt Industrial,91.53,163.29,99.79,170.1,433.18,Single-ply,SBD,M
Boys,99.79,15,Dabi Reyna,Robstown,96.16,136.08,102.06,190.51,428.64,Single-ply,SBD,M
Boys,99.79,16,Andres Garza,Alice,97.52,124.74,104.33,113.4,342.46,Single-ply,SBD,M
Boys,99.79,17,Aaron Gutierrez,Kingsville King,97.7,111.13,88.45,129.27,328.85,Single-ply,SBD,M
Boys,99.79,DQ,Nathan Morin,George West,90.08,,,,,Single-ply,SBD,M
Boys,99.79,DQ,Kolby Jarek,Poth,94.35,204.12,142.88,,,Single-ply,SBD,M
Boys,109.77,1,Michael Rodriguez #4,Kingsville King,105.23,265.35,165.56,233.6,664.51,Single-ply,SBD,M
Boys,109.77,2,Tk Nolte,Gregory-Portland,104.78,251.74,140.61,240.4,632.76,Single-ply,SBD,M
Boys,109.77,3,Blade Bronstad,Corpus Christi Calallen,104.42,254.01,117.93,231.33,603.28,Single-ply,SBD,M
Boys,109.77,4,Austin Speed,Goliad,108.14,217.72,127.01,222.26,566.99,Single-ply,SBD,M
Boys,109.77,5,Ned Olvera,Sinton,107.5,226.8,154.22,172.37,553.38,Single-ply,SBD,M
Boys,109.77,6,Ruben Ramirez,Aransas Pass,106.5,188.24,151.95,210.92,551.11,Single-ply,SBD,M
Boys,109.77,7,Luis Monsevias,Orange Grove,105.41,208.65,104.33,217.72,530.7,Single-ply,SBD,M
Boys,109.77,8,Marc Hinojosa,Bishop,108.59,197.31,138.35,181.44,517.1,Single-ply,SBD,M
Boys,109.77,9,Jose Corona,Alice,104.05,181.44,124.74,149.69,455.86,Single-ply,SBD,M
Boys,109.77,10,Johnathon Villarreal,Alice,106.87,165.56,108.86,142.88,417.3,Single-ply,SBD,M
Boys,109.77,DQ,Harley Vickers,Alice,109.77,272.16,183.7,,,Single-ply,SBD,M
Boys,109.77,DQ,Sylver Carrizales,Corpus Christi Tuloso-Midway,106.96,192.78,,,,Single-ply,SBD,M
Boys,109.77,DQ,Bryan Chesser,George West,106.23,229.06,,,,Single-ply,SBD,M
Boys,109.77,DQ,Frank Meza,Kingsville King,105.32,115.67,,,,Single-ply,SBD,M
Boys,124.74,1,Richie Salinas,Kingsville King,121.56,254.01,208.65,222.26,684.92,Single-ply,SBD,M
Boys,124.74,2,Brandon Michaels,Gregory-Portland,119.39,258.55,140.61,226.8,625.96,Single-ply,SBD,M
Boys,124.74,3,Anderson Daniels,George West,116.66,260.82,158.76,204.12,623.69,Single-ply,SBD,M
Boys,124.74,4,Cameron Ellerbee,Beeville Jones,121.29,226.8,133.81,240.4,601.01,Single-ply,SBD,M
Boys,124.74,5,David Silva,Corpus Christi Calallen,110.95,210.92,115.67,224.53,551.11,Single-ply,SBD,M
Boys,124.74,6,Juan Macias,Alice,116.85,208.65,127.01,176.9,512.56,Single-ply,SBD,M
Boys,124.74,7,Dylan Duff,Corpus Christi Calallen,110.13,199.58,129.27,179.17,508.02,Single-ply,SBD,M
Boys,124.74,8,Thomas Zaragosa,Bishop,124.19,204.12,111.13,185.97,501.22,Single-ply,SBD,M
Boys,124.74,9,Waylon Oaks,Alice,122.65,170.1,65.77,165.56,401.43,Single-ply,SBD,M
Boys,124.74,10,Xavier Carrillo,Alice,115.67,129.27,88.45,158.76,376.48,Single-ply,SBD,M
Boys,124.74,DQ,Zach Gonzalez,Bishop,122.92,,,,,Single-ply,SBD,M
Boys,124.74,DQ,Kris Gebert,Orange Grove,122.29,,,,,Single-ply,SBD,M
Boys,124.74+,1,Bryan Tschatschula,Port Lavaca Calhoun,147.6,272.16,172.37,226.8,671.32,Single-ply,SBD,M
Boys,124.74+,2,Thaelen Villarreal,Port Lavaca Calhoun,161.71,238.14,170.1,249.48,657.71,Single-ply,SBD,M
Boys,124.74+,3,Antonio Galvan,Aransas Pass,138.98,281.23,154.22,192.78,628.23,Single-ply,SBD,M
Boys,124.74+,4,Luis Lopez #1,Kingsville King,134.26,249.48,120.2,226.8,596.47,Single-ply,SBD,M
Boys,124.74+,5,Eli Garcia,George West,130.18,240.4,129.27,190.51,560.19,Single-ply,SBD,M
Boys,124.74+,6,Toshido Paz,Sinton,130.73,208.65,161.03,188.24,557.92,Single-ply,SBD,M
Boys,124.74+,7,Arturo Pena,Robstown,155.13,213.19,127.01,195.04,535.24,Single-ply,SBD,M
Boys,124.74+,8,John Lazo,Alice,151.27,204.12,129.27,170.1,503.49,Single-ply,SBD,M
Boys,124.74+,9,Victor Lopez II,Aransas Pass,136.35,199.58,115.67,183.7,498.95,Single-ply,SBD,M
Boys,124.74+,10,Joshua Sambrano,Corpus Christi West Oso,138.71,158.76,136.08,201.85,496.68,Single-ply,SBD,M
Boys,124.74+,DQ,Hector Garza,Robstown,140.52,,,,,Single-ply,SBD,M
Boys,124.74+,DQ,Lance McDonald,Robstown,143.88,,,,,Single-ply,SBD,M
